…
    # install.packages("remotes")
    remotes::install_github("RobertMyles/cepR")

Uso
---

É possível buscar os nomes das cidades e municipios com `busca_estado()`

    library(cepR)
    token <- "XXXXXXXXXXX" # seu token
    sp <- busca_estado(estado = "SP", token = token)

    sp
    # A tibble: 863 x 2
       estado                  municipio
        <chr>                      <chr>
     1     SP                 Adamantina
     2     SP                     Adolfo
     3     SP         Agisse (Rancharia)
     4     SP                      Aguaí
     5     SP             Águas da Prata
     6     SP           Águas de Lindóia
     7     SP     Águas de Santa Bárbara
     8     SP         Águas de São Pedro
     9     SP Água Vermelha (São Carlos)
    10     SP                     Agudos
    # ... with 853 more rows
…
